Chapter 4 Multi-level model | Workshop on Bayesian Priors
…
# Create an ellipse dataframe for each of the levels defined 
# above and combine them
df_ellipse <- levels %>%
  purrr::map_df(~ make_ellipse(cov_mat, center, level = .x)) %>% 
  dplyr::rename(ADS = x, RegisterIDS = y)
df_ellipse

## # A tibble: 500 × 3
##         ADS RegisterIDS level
##       <dbl>       <dbl> <dbl>
##  1  0.0275       -0.214   0.1
##  2  0.0164       -0.202   0.1
##  3  0.00482      -0.190   0.1
##  4 -0.00730      -0.179   0.1
##  5 -0.0199       -0.169   0.1
##  6 -0.0328       -0.160   0.1
##  7 -0.0462       -0.152   0.1
##  8 -0.0598       -0.145   0.1
##  9 -0.0736       -0.139   0.1
## 10 -0.0877       -0.134   0.1
## # … with 490 more rows
…
