Chapter 4 Part IV: Multi-level model with repeated measures | Workshop on Bayesian Data Analysis & Priors
…
# Create an ellipse dataframe for each of the levels defined 
# above and combine them
df_ellipse <- levels %>%
  purrr::map_df(~ make_ellipse(cov_mat, center, level = .x)) %>% 
  dplyr::rename(ADS = x, RegisterIDS = y)
df_ellipse

## # A tibble: 500 × 3
##         ADS RegisterIDS level
##       <dbl>       <dbl> <dbl>
##  1  0.0187       -0.220   0.1
##  2  0.00783      -0.208   0.1
##  3 -0.00357      -0.197   0.1
##  4 -0.0155       -0.186   0.1
##  5 -0.0278       -0.177   0.1
##  6 -0.0405       -0.168   0.1
##  7 -0.0536       -0.160   0.1
##  8 -0.0670       -0.153   0.1
##  9 -0.0806       -0.147   0.1
## 10 -0.0944       -0.142   0.1
## # … with 490 more rows
…
  ellipse(cov_mat, centre = center, level = level) %>%
    as.data.frame() %>%
    add_column(level = level) %>% 
    as_tibble()
}
center <- fixef(Articulation_student_m3)
levels <- c(.1, .3, .5, .7, .9)
# Create an ellipse dataframe for each of the levels defined 
# above and combine them
df_ellipse <- levels %>%
  purrr::map_df(~ make_ellipse(cov_mat, center, level = .x)) %>% 
  dplyr::rename(ADS = x, RegisterIDS = y)
df_ellipse

## # A tibble: 500 × 3
##          ADS RegisterIDS level
##        <dbl>       <dbl> <dbl>
##  1  0.0103        -0.226   0.1
##  2 -0.000638      -0.214   0.1
##  3 -0.0121        -0.203   0.1
##  4 -0.0241        -0.193   0.1
##  5 -0.0366        -0.183   0.1
##  6 -0.0494        -0.175   0.1
##  7 -0.0626        -0.167   0.1
##  8 -0.0761        -0.160   0.1
##  9 -0.0898        -0.154   0.1
## 10 -0.104         -0.149   0.1
## # … with 490 more rows
…
